{
	// Place your snippets for css here. Each snippet is defined under a snippet name and has a prefix, body and 
	// description. The prefix is what is used to trigger the snippet and the body will be expanded and inserted. Possible variables are:
	// $1, $2 for tab stops, $0 for the final cursor position, and ${1:label}, ${2:another} for placeholders. Placeholders with the 
	// same ids are connected.
	// Example:
	// "Print to console": {
	// 	"prefix": "log",
	// 	"body": [
	// 		"console.log('$1');",
	// 		"$2"
	// 	],
	// 	"description": "Log output to console"
	// }
	"Shabnam fonts cdn": {
		"prefix": "font shabnam",
		"body": [
		  "@font-face {",
		  "    font-family: Shabnam;",
		  "    src: url('https://cdn.fontcdn.ir/Font/Persian/Shabnam/Shabnam.eot');",
		  "    src: url('https://cdn.fontcdn.ir/Font/Persian/Shabnam/Shabnam.eot?#iefix') format('embedded-opentype'), url('https://cdn.fontcdn.ir/Font/Persian/Shabnam/Shabnam.woff2') format('woff2'), url('https://cdn.fontcdn.ir/Font/Persian/Shabnam/Shabnam.woff') format('woff'), url('https://cdn.fontcdn.ir/Font/Persian/Shabnam/Shabnam.ttf') format('truetype');",
		  "    font-weight: normal;",
		  "}",
		  "",
		  "@font-face {",
		  "    font-family: Shabnam;",
		  "    src: url('https://cdn.fontcdn.ir/Font/Persian/Shabnam/Shabnam-Bold.eot');",
		  "    src: url('https://cdn.fontcdn.ir/Font/Persian/Shabnam/Shabnam-Bold.eot?#iefix') format('embedded-opentype'), url('https://cdn.fontcdn.ir/Font/Persian/Shabnam/Shabnam-Bold.woff2') format('woff2'), url('https://cdn.fontcdn.ir/Font/Persian/Shabnam/Shabnam-Bold.woff') format('woff'), url('https://cdn.fontcdn.ir/Font/Persian/Shabnam/Shabnam-Bold.ttf') format('truetype');",
		  "    font-weight: bold;",
		  "}",
		  "",
		  "@font-face {",
		  "    font-family: Shabnam;",
		  "    src: url('https://cdn.fontcdn.ir/Font/Persian/Shabnam/Shabnam-Light.eot');",
		  "    src: url('https://cdn.fontcdn.ir/Font/Persian/Shabnam/Shabnam-Light.eot?#iefix') format('embedded-opentype'), url('https://cdn.fontcdn.ir/Font/Persian/Shabnam/Shabnam-Light.woff2') format('woff2'), url('https://cdn.fontcdn.ir/Font/Persian/Shabnam/Shabnam-Light.woff') format('woff'), url('https://cdn.fontcdn.ir/Font/Persian/Shabnam/Shabnam-Light.ttf') format('truetype');",
		  "    font-weight: 300;",
		  "}"
		],
		"description": "Shabnam fonts cdn"
	  },
	  
	  "css row comment": {
		"prefix": "rc",
		"body": [
		  "/****************** $1 *****************/",
		  "$0"
		],
		"description": "css row comment"
	  },
	  "fontawesome's hamburgur icon": {
		"prefix": "fa ham",
		"body": [
		  "<i class=\"fas fa-bars\">$1</i>"
		],
		"description": "fontawesome's hamburgur icon"
	  },
	  

}