{
	// Place your snippets for html here. Each snippet is defined under a snippet name and has a prefix, body and 
	// description. The prefix is what is used to trigger the snippet and the body will be expanded and inserted. Possible variables are:
	// $1, $2 for tab stops, $0 for the final cursor position, and ${1:label}, ${2:another} for placeholders. Placeholders with the 
	// same ids are connected.
	// Example:
	// "Print to console": {
	// 	"prefix": "log",
	// 	"body": [
	// 		"console.log('$1');",
	// 		"$2"
	// 	],
	// 	"description": "Log output to console"
	// }
	"bootsrtap 4 cdn": {
		"prefix": "bcdn",
		"body": [
			"<link rel='stylesheet' href='https://stackpath.bootstrapcdn.com/bootstrap/4.3.1/css/bootstrap.min.css'",
			"    integrity='sha384-ggOyR0iXCbMQv3Xipma34MD+dH/1fQ784/j6cY/iJTQUOhcWr7x9JvoRxT2MZw1T' crossorigin='anonymous'>"
		],
		"description": "bootsrtap 4 cdn"
	},
	"bootstrap 4 RTL cdn": {
		"prefix": "bcdn rtl",
		"body": [
			"<link rel=\"stylesheet\"",
		  "	  href=\"https://cdn.rtlcss.com/bootstrap/v4.2.1/css/bootstrap.min.css\"",
		  "	  integrity=\"sha384-vus3nQHTD+5mpDiZ4rkEPlnkcyTP+49BhJ4wJeJunw06ZAp+wzzeBPUXr42fi8If\"",
		  "	  crossorigin=\"anonymous\"",
			">"
			"${1:body: direction:rtl}"
		],
		"description": "bootstrap 4 RTL cdn"
	},
	"fontawesome cdn": {
		"prefix": "awesome",
		"body": [
			"<script src=\"https://kit.fontawesome.com/07004b21de.js\"></script>",
			"$0"
		],
		"description": "fontawesome cdn"
	},
	"hmtl row comment": {
		"prefix": "rc",
		"body": [
			"<!----------------------------- ${1:comment} ------------------------------>"
			"$0"
		],
		"description": "hmtl row comment"
	},
	"raw html document": {
		"prefix": "<html>",
		"body": [
			"<!DOCTYPE html>",
			"<html>",
			"<head>",
		  "	<title>$1</title>",
		  "	$2",
			"</head>",
			"<body>",
			"$0",
			"</body>",
			"</html>"
		],
		"description": "raw html document"
	},
	"random picture": {
		"prefix": "randpic",
		"body": [
			"<img className='${1:image}' alt='${2:logo}' src='https://picsum.photos/${3:200}/${4:200}' />$0"
		],
		"description": "random picture"
	}
}